{
	"values": {
        "player": "db(footballPlayer)",
        "players": "db(footballPlayer[(footballPlayer.value > val.player.value + 10000000) | (footballPlayer.value < val.player.value - 10000000)])",
        "players_same": "db(footballPlayer[footballPlayer.value == val.player.value])"
    },
	"&choose": {
		"title": {
			"text": ["ارزش کدام بازیکن در سایت transfermarkt `val.player.value` تعیین شده است؟"]
	},
		"choice": {
			"text": ["$val.players.name"]
	},
		"answer": {
			"text": ["$val.player.name"]
	}
	},
	"&select": {
		"title": {
			"text": ["ارزش کدام بازیکنان در سایت transfermarkt `val.player.value` تعیین شده است؟"]
	},
		"choice": {
			"text": ["$val.players.choose(1).name"]
	},
		"answer": {
			"text": ["$val.players_same.name"]
	}
	},
    "datasets": ["footballPlayer"],
	"usage": ["contest"],
	"level": 2,
	"score_function": "default",
	"time_function": "default",
	"tags": ["football", "footballPlayer", "player"],
	"__state": "",
	"__test_info": {},
	"__idea": [""]

} 