{
  "values": {
    "match": "db(footballMatch)",
    "matches": "db(footballMatch[footballMatch.stadium != val.match.stadium], NOC)"
  },
  "&choose": {
    "title": {
      "text": [
        "بازی `val.match.name` در چه ورزشگاهی برگزار شد؟"
      ]
    },
    "choice": {
      "text": [
        "$val.matches.stadium"
      ]
    },
    "answer": {
      "text": [
        "$val.match.stadium"
      ]
    }
  },
  "&write": {
    "title": {
      "text": [
        "بازی `val.match.name` در چه ورزشگاهی برگزار شد؟"
      ]
    },
    "answer": {
      "text": [
        "$val.match.stadium"
      ]
    }
  },
  "&bool": {
    "title": {
      "text": [
        "بازی `val.match.name` در ورزشگاه `val.match.stadium` برگزار شد.",
        "بازی `val.match.name` در ورزشگاه `val.matches.choose(1).stadium` برگزار شد."
      ]
    }
  },
  "datasets": [
    "footballMatch"
  ],
  "usage": [
    "contest"
  ],
  "level": 2,
  "score_function": "default",
  "time_function": "default",
  "tags": [
    "football",
    "footballMatch",
    "match"
  ],
  "__state": "",
  "__test_info": {},
  "__idea": [
    ""
  ]
}