{
  "values": {
    "coach": "db(footballCoach)",
    "coachs": "db(footballCoach[footballCoach.nation != val.coach.nation] , NOC)"
  },
  "&choose": {
    "title": {
      "text": [
        "ملیت `val.coach.name` را انتخاب کنید؟",
        "`val.coach.name` اهل چه کشوری است؟"
      ]
    },
    "choice": {
      "text": [
        "$val.coachs.nation"
      ]
    },
    "answer": {
      "text": [
        "$val.coach.nation"
      ]
    }
  },
  "&write": {
    "title": {
      "text": [
        "`val.coach.name` اهل چه کشوری است؟"
      ]
    },
    "answer": {
      "text": [
        "$val.coach.nation"
      ]
    }
  },
  "&bool": {
    "title": {
      "text": [
        "`val.coach.name` اهل کشور `val.coach.nation` میباشد.",
        "`val.coach.name` اهل کشور `val.coachs.choose(1).nation` میباشد."
      ]
    }
  },
  "datasets": [
    "footballCoach"
  ],
  "usage": [
    "contest"
  ],
  "level": 2,
  "score_function": "default",
  "time_function": "default",
  "tags": [
    "football",
    "footballCoach",
    "coach"
  ],
  "__state": "",
  "__test_info": {},
  "__idea": [
    ""
  ]
}