{
	"values": {
        "player": "db(footballPlayer)",
        "players": "db(footballPlayer[(footballPlayer.value > val.player.value + 10000000) | (footballPlayer.value < val.player.value - 10000000)])"
    },
	"&choose": {
		"title": {
			"text": ["ارزش `val.player.name` در سایت transfermarkt چقدر تعیین شده است؟"]
	},
		"choice": {
			"text": ["$val.players.value"]
	},
		"answer": {
			"text": ["$val.player.value"]
	}
	},
	"&bool": {
		"title": {
			"text": ["در سایت transfermarkt ارزش `val.player.name` `val.player.value` یورو تعیین شده است." ,
                    "در سایت transfermarkt ارزش `val.player.name` `val.players.choose(1).value` یورو تعیین شده است."]
        }
    },
	"datasets": ["footballPlayer"],
	"usage": ["contest"],
	"level": 2,
	"score_function": "default",
	"time_function": "default",
	"tags": ["football", "footballPlayer", "player"],
	"__state": "",
	"__test_info": {},
	"__idea": [""]

} 