{
	"values": {
        "player": "db(footballPlayer)"
    },
	"&write": {
		"title": {
			"text": ["`val.player.name` چپ است یا راست پا؟"]
	},
		"answer": {
			"text": ["$val.player.foot"]
	}
	},
	"datasets": ["footballPlayer"],
	"usage": ["contest"],
	"level": 2,
	"score_function": "default",
	"time_function": "default",
	"tags": ["football", "footballPlayer", "player"],
	"__state": "",
	"__test_info": {},
	"__idea": [""]

} 