{
  "values": {
    "match": "db(footballMatch)",
    "matches": "db(footballMatch[footballMatch.stadium != val.match.stadium], NOC)"
  },
  "&choose": {
    "title": {
      "text": [
        "کدام یک از بازی های زیر در استادیوم `val.match.stadium` برگزار شده است؟"
      ]
    },
    "choice": {
      "text": [
        "$val.matches.name"
      ]
    },
    "answer": {
      "text": [
        "$val.match.name"
      ]
    }
  },
  "datasets": [
    "footballMatch"
  ],
  "usage": [
    "contest"
  ],
  "level": 2,
  "score_function": "default",
  "time_function": "default",
  "tags": [
    "football",
    "footballMatch",
    "match"
  ],
  "__state": "",
  "__test_info": {},
  "__idea": [
    ""
  ]
}