{
	"values": {
        "team": "db(footballTable)",
        "teams": "db(footballTable[(footballTable.league == val.team.league) & (footballTable.name != val.team.name)] ,NOC)"
    },
	"&choose": {
		"title": {
			"text": ["کدام تیم در لیگ `val.team.league` در رتبه ی `val.team.pos` قرار دارد؟"]
	},
		"choice": {
			"text": ["val.teams.name"]
	},
		"answer": {
			"text": ["val.team.name"]
	}
	},
	"&write": {
		"title": {
			"text": ["چه تیمی در جدول لیگ `val.team.league` در رتبه ی `val.team.pos` قرار دارد؟"]
	},
		"answer": {
			"text": ["val.team.name"]
	}
	},
	
	"datasets": ["footballTable"],
	"usage": ["contest"],
	"level": 2,
	"score_function": "default",
	"time_function": "default",
	"tags": ["football", "footballTable", "league" ,"table"],
	"__state": "",
	"__test_info": {},
	"__idea": [""]

} 