{
	"values": {
        "player": "db(footballPlayer)",
        "players": "db(footballPlayer[(footballPlayer.wage > val.player.wage + 5000000) | (footballPlayer.wage < val.player.wage - 5000000)], NOC)",
        "players_same": "db(footballPlayer[footballPlayer.wage == val.player.wage], NOC)"
    },
	"&choose": {
		"title": {
			"text": ["حقوق ماهیانه کدام بازیکن برابر `val.player.wage` است؟"]
	},
		"choice": {
			"text": ["$val.players.name"]
	},
		"answer": {
			"text": ["$val.player.name"]
	}
    },
    "&select": {
		"title": {
			"text": ["حقوق ماهیانه کدام بازیکنان برابر `val.player.wage` است؟"]
	},
		"choice": {
			"text": ["$val.players.choose(1).name"]
	},
		"answer": {
			"text": ["$val.players_same.name"]
	}
	},
	"datasets": ["footballPlayer"],
	"usage": ["contest"],
	"level": 2,
	"score_function": "default",
	"time_function": "default",
	"tags": ["football", "footballPlayer", "player"],
	"__state": "",
	"__test_info": {},
	"__idea": [""]

} 