{
  "values": {
    "team": "db(footballTeam)",
    "team_same": "db(footballTeam[footballTeam.league == val.team.league])",
    "leagues": "listSub(footballTeam.league, val.team.league)"
  },
  "&bool": {
    "title": {
      "text": [
        "تیم `val.team.name` در لیگ `val.team.league` فعالیت میکند؟",
        "تیم `val.team.name` در لیگ `val.leagues.choose(1)` فعالیت میکند؟"
      ]
    }
  },
  "&choose": {
    "title": {
      "text": [
        "تیم `val.team.name` در کدام لیگ فعالیت میکند؟",
        "تیم `val.team.name` و `val.team_same.name` در کدام لیگ فعالیت میکنند؟"
      ]
    },
    "answer": {
      "text": [
        "$val.team.league"
      ]
    },
    "choice": {
      "text": [
        "$val.leagues.choose(val.NOC)"
      ]
    }
  },
  "&write": {
    "title": {
      "text": [
        "تیم `val.team.name` در چه لیگی فعالیت میکند؟"
      ]
    },
    "answer": {
      "text": [
        "$val.team.league"
      ]
    }
  },
  "datasets": [
    "footballTeam"
  ],
  "usage": [
    "contest"
  ],
  "score_function": "default",
  "time_function": "default",
  "tags": [
    "football",
    "footballTeam"
  ],
  "__state": "",
  "__test_info": {
    "duplication": {
      "similars": []
    },
    "acceptance": {
      "votes": [1, 2, 3, 4]
    },
    "data": {
      "datasets": [
        {
          "name": "footballTeam",
          "state": "null",
          "ok": false
        }
      ]
    },
    "structure": {
      "sections": []
    },
    "generation": {
      "result": []
    },
    "manual": {
      "votes": [1, 2, 3, 4]
    }
  },
  "__idea": [
    ""
  ]
}