{
	"values": {
        "team": "db(footballTeam)",
        "teams": "db(footballTeam[footballTeam.name != val.team.name], NOC)"
    },
	"&choose": {
		"title": {
			"text": ["لباس دوم تیم `val.team.name` کدام است؟ "]
	},
		"choice": {
			"text": ["val.teams.awaykit"]
	},
		"answer": {
			"text": ["val.team.awaykit"]
	}
	},
	"&write": {
		"title": {
			"text": ["عکس زیر ، پیراهن دوم کدام تیم است؟"]
	},
		"answer": {
			"text": ["val.team.name"]
    },
        "subtitle": {
            "text": ["val.team.awaykit"]  
        }
    },
    "&bool": {
		"title": {
			"text": ["عکس زیر ، پیراهن دوم تیم `val.team.name` میباشد.",
                            "عکس زیر ، پیراهن دوم تیم `val.teams.choose(1).name` میباشد.",
                            "عکس زیر ، لباس دوم تیم `val.team.name` میباشد.",
                            "عکس زیر ، لباس دوم تیم `val.teams.choose(1).name` میباشد.",
                            "عکس زیر ، پیراهن تیم `val.team.name` میباشد.",
                            "عکس زیر ، پیراهن تیم `val.teams.choose(1).name` میباشد.",
                            "عکس زیر ، لباس تیم `val.team.name` میباشد.",
                            "عکس زیر ، لباس تیم `val.teams.choose(1).name` میباشد."
            ],
        "subtitle": {
            "text": ["val.team.awaykit"]
    }

	},

	
	"datasets": ["footballTeam"],
	"usage": ["contest"],
	"level": 2,
	"score_function": "default",
	"time_function": "default",
	"tags": ["football", "footballTeam", "team", "club"],
	"__state": "",
	"__test_info": {},
	"__idea": [""]
} 