{
    "values": {
        "team": "db(footballTeam)",
        "teams": "db(footballTeam[footballTeam.league != val.team.league] ,NOC)",
        "teams_same": "db(footballTeam[footballTeam.league == val.team.league] ,NOC)",
        "ans_cnt": "rand(range(1,NOC+1))"
    },
    "title_selective": [
        "از بین گزینه های زیر کدام تیمها در لیگ `val.team.league` حضور دارد؟"
    ],
    "title_multichoices": [
        "کدام یک از تیم های زیر در لیگ `val.team.league` حضور دارد؟"
    ],
    "answer_multichoices": [
        "val.team.logo"
    ],
    "answer_selective": [
        "val.teams_same.choose(ans_cnt).logo"
    ],
    "choices_multichoices": [
        "val.teams.logo"
    ],
    "choices_selective": [
        "val.teams.choose(NOC - ans_cnt +1).logo"
    ],
    "__usage": [
        "contest"
    ],
    "__number": 28,
    "__level": 1
}