{
    "values": {
        "team": "db(footballTeam)",
        "teams": "db(footballTeam[footballTeam.year != val.team.year])",
        "True_or_False": "rand([True,False])"
    },
    "title_multichoices": [
        "تیم `val.team.name` در چه سالی تاسیس شده است؟"
    ],
    "title_writing": [
        "تیم `val.team.name` در چه سالی تاسیس شده است؟"
    ],
    "title_true_false": [
        "تیم `val.team.name` در سال `val.team.year` تاسیس شده است.",
        "تیم `val.team.name` در سال `wrong_guess(val.team.year, 1)` تاسیس شده است."
    ],
    "answer_multichoices": [
        "val.team.year"
    ],
    "answer_writing": [
        "val.team.year"
    ],
    "answer_true_false": [
        "val.True_or_False"
    ],
    "choices_multichoices": [
        "wrong_guess(val.team.year, 17 , NOC)"
    ],
    "__usage": [
        "contest"
    ],
    "__number": 27,
    "__level": 2
}