{
  "values": {
    "team": "db(footballTeam)",
    "teams": "db(footballTeam[footballTeam.league != val.team.league] ,val.NOC)",
    "teams_same": "db(footballTeam[(footballTeam.league == val.team.league) & (footballTeam.name != val.team.name)] ,val.NOC)",
    "league": "listSub(footballTeam.league, val.team.league)"
  },
  "&choose": {
    "title": {
      "text": [
        "کدام تیم در لیگ متفاوتی نسبت به سایر گزینه ها فعالیت میکند؟",
        "تیمی که نسبت به سایر تیمها در لیگ متفاوتی فعالیت میکند را انتخاب کنید."
      ]
    },
    "choice": {
      "text": [
        "$val.teams.choose(val.NOC).name"
      ]
    },
    "answer": {
      "text": [
        "$val.team.name"
      ]
    }
  },
  "&select": {
    "title": {
      "text": [
        "تیم هایی که در یک لیگ مشترک فعالیت دارند راانتخاب کنید.",
        "کدام تیم ها در یک لیگ مشترک حضور دارند؟"
      ]
    },
    "choice": {
      "text": [
        "$val.team.name"
      ]
    },
    "answer": {
      "text": [
        "$val.teams_same.choose(val.NOC).name"
      ]
    }
  },
  "&bool": {
    "title": {
      "text": [
        " تیم های `val.team.name`,  `val.teams_same.choose(1).name` در یک لیگ مشترک فعالیت میکنند.",
        "تیم های `val.team.name` , `val.teams.choose(1).name` در یک لیگ فعالیت میکنند.",
        "تیم های `val.team.name` , `val.teams_same.choose(1).name` در لیگ `val.team.league` فعالیت میکنند.",
        "تیم های `val.team.name` , `val.teams.choose(1).name` در لیگ `val.league.choose(1)` فعالیت میکنند.",
        "هر دو تیم `val.team.name` , `val.teams_same.choose(1).name` در لیگ `val.team.league` فعالیت میکنند.",
        "هر دو تیم `val.team.name` , `val.teams.choose(1).name` در لیگ `val.team.league` فعالیت میکنند."
      ]
    }
  },
  "datasets": [
    "footballTeam"
  ],
  "usage": [
    "contest"
  ],
  "level": 2,
  "score_function": "default",
  "time_function": "default",
  "tags": [
    "football",
    "footballTeam"
  ],
  "__state": "",
  "__test_info": {},
  "__idea": [
    ""
  ]
}